<?xml version="1.0" encoding="utf-8"?>
<!-- Generator: Adobe Illustrator 20.0.0, SVG Export Plug-In . SVG Version: 6.00 Build 0)  -->
<svg version="1.1" id="Layer_1" xmlns="http://www.w3.org/2000/svg" xmlns:xlink="http://www.w3.org/1999/xlink" x="0px" y="0px"
	 viewBox="0 0 64 64" style="enable-background:new 0 0 64 64;" xml:space="preserve">
<style type="text/css">
	.st0{fill:#FFFFFF;}
</style>
<path class="st0" d="M63.4,25.8c-0.2-1.1-1.1-2-2.3-2.4c-1.7-0.5-3.4,0.5-3.9,2.2c-0.1,0.5-0.1,1,0,1.5c0,0.1,0,0.2,0,0.1
	c0.7,3.7,0.7,7.5-0.3,11.4c-3.7,13.7-17.8,21.9-31.6,18.2C11.6,53.2,3.4,39.1,7.1,25.3S24.9,3.4,38.7,7.1c0.1,0,0.2,0.1,0.3,0.1
	c0,0,0,0,0.1,0c0.1,0,0.1,0,0.2,0c1.7,0.4,3.4-0.5,3.8-2.2c0.1-0.5,0.1-1,0-1.5c-0.2-1-1-1.8-2-2.2c-0.3-0.1-0.5-0.2-0.8-0.3
	C23.2-3.5,5.7,6.6,1.1,23.7c-4.6,17.1,5.5,34.6,22.6,39.2c17.1,4.6,34.6-5.5,39.2-22.6C64.2,35.4,64.3,30.5,63.4,25.8z"/>
<g>
	<path class="st0" d="M30.5,48.3c-1,1.3-2.9,1.5-4.2,0.5l-12.6-9.5c-2.1-1.6-2.5-4.5-0.9-6.6l0,0c1.6-2.1,4.5-2.5,6.6-0.9l7.6,5.7
		l16.8-21.1c1.6-2,4.6-2.4,6.6-0.7l0,0c2,1.6,2.4,4.6,0.7,6.6L30.5,48.3z"/>
</g>
</svg>
