<?xml version="1.0" encoding="utf-8"?>
<!-- Generator: Adobe Illustrator 18.1.1, SVG Export Plug-In . SVG Version: 6.00 Build 0)  -->
<svg version="1.1" id="Layer_1" xmlns="http://www.w3.org/2000/svg" xmlns:xlink="http://www.w3.org/1999/xlink" x="0px" y="0px"
	 viewBox="0 0 12 6.7" enable-background="new 0 0 12 6.7" xml:space="preserve">
<polyline fill="none" stroke="#C4A27D" stroke-linecap="round" stroke-miterlimit="10" points="11.5,0.5 6,6 0.5,0.5 "/>
</svg>
